{
  "background_color": "#255399",
  "description": "Dr. Bashir Admani & Associates Pediatric Clinic",
  "display": "fullscreen",
  "icons": [
    {
      "src": "ped.png",
      "sizes": "192x192",
      "type": "image/png"
    }
  ],
  "name": "Dr. Bashir Admani",
  "short_name": "Bashir",
  "start_url": "https://bashir.fleetwise.co/index.html",
  "theme_color": "rgba(28, 161, 227, 1)",
  "lang": "en"
}