<svg preserveAspectRatio="xMidYMid meet" data-bbox="17.379 6.358 165.242 187.284" viewBox="17.37900161743164 6.357997417449951 165.2420196533203 187.28399658203125" height="80" width="200" xmlns="http://www.w3.org/2000/svg" data-type="color" role="img" style="">
<g>
    <path d="M98.368 47.054H82.439a3.972 3.972 0 1 1 0-7.944h15.929a3.972 3.972 0 1 1 0 7.944z" fill="#F97425" data-color="1"></path>
    <path d="M89.452 60.426h-7.013a3.972 3.972 0 1 1 0-7.944h7.013a3.972 3.972 0 1 1 0 7.944z" fill="#F97425" data-color="1"></path>
    <path d="M98.368 73.798H82.439a3.972 3.972 0 1 1 0-7.944h15.929a3.972 3.972 0 1 1 0 7.944z" fill="#F97425" data-color="1"></path>
    <path d="M89.452 87.17h-7.013a3.972 3.972 0 1 1 0-7.944h7.013a3.972 3.972 0 1 1 0 7.944z" fill="#F97425" data-color="1"></path>
    <path d="M98.368 100.542l-15.929-.003a3.972 3.972 0 1 1 0-7.944l15.929.003a3.972 3.972 0 1 1 0 7.944z" fill="#F97425" data-color="1"></path>
    <path d="M89.452 113.91h-7.013a3.972 3.972 0 1 1 0-7.944h7.013a3.972 3.972 0 1 1 0 7.944z" fill="#F97425" data-color="1"></path>
    <path d="M98.368 127.282H82.439a3.972 3.972 0 1 1 0-7.944h15.929a3.972 3.972 0 1 1 0 7.944z" fill="#F97425" data-color="1"></path>
    <path d="M97.573 149.154c-13.853 0-25.124-11.271-25.124-25.127V33.66l-7.15-21a4.763 4.763 0 0 1 4.512-6.302h55.526a4.768 4.768 0 0 1 4.512 6.302l-7.15 21v90.366c.001 13.857-11.27 25.128-25.126 25.128zM76.471 15.891l5.257 15.445c.168.493.254 1.015.254 1.536v91.155c0 8.599 6.995 15.594 15.591 15.594 8.599 0 15.594-6.995 15.594-15.594V32.872c0-.521.087-1.043.254-1.536l5.257-15.445H76.471z" fill="#ffffff" data-color="2"></path>
    <path d="M76.167 101.488h-14.3c-10.514 0-19.066-8.553-19.066-19.066s8.553-19.066 19.066-19.066h14.3a4.768 4.768 0 0 1 0 9.534h-14.3c-5.257 0-9.533 4.276-9.533 9.533s4.276 9.533 9.533 9.533h14.3a4.768 4.768 0 0 1 4.767 4.767 4.768 4.768 0 0 1-4.767 4.765z" fill="#ffffff" data-color="2"></path>
    <path d="M177.854 193.642H33.268c-8.76 0-15.889-7.128-15.889-15.889 0-8.76 7.128-15.889 15.889-15.889h139.82V80.917c0-4.425-3.603-8.028-8.028-8.028h-44.404a4.768 4.768 0 0 1 0-9.534h44.404c9.682 0 17.561 7.879 17.561 17.561v85.715a4.768 4.768 0 0 1-4.767 4.767H33.268a6.363 6.363 0 0 0-6.355 6.355 6.363 6.363 0 0 0 6.355 6.355h144.586a4.768 4.768 0 0 1 0 9.534z" fill="#ffffff" data-color="2"></path>
    <path d="M146.077 101.488h-27.805a4.768 4.768 0 0 1 0-9.534h27.805a4.768 4.768 0 0 1 0 9.534z" fill="#ffffff" data-color="2"></path>
</g>
</svg>